{ "testData": [

{
"userName" : "testuse674ffr29@gmail.com",
  "password": "F22@80220$",
  "profileCreator":"Self",
  "gender": "Male",
  "mother_tongue": "marathi",
  "url":  "https://www.marathishaadi.com/"
},

]
}
